---------------------------------------------------------------
LimeSuite Sink (TX) info

##################
Connecting to device
##################
LimeSuite version: 20.10.0-g1480bfea
gr-limesdr version: 2.2.7
##################
ERROR: device_handler::open_device(): No Lime devices found.
---------------------------------------------------------------
LimeSuite Source (RX) info

##################
Connecting to device
##################
LimeSuite version: 20.10.0-g1480bfea
gr-limesdr version: 2.2.7
##################
ERROR: device_handler::open_device(): No Lime devices found.
herefolder created: //media/ramdisk/0_window
Created Folder: /media/ramdisk/0_window
15 22 3
00
DATE		TIME		AZ		EL
22-02-01	15:22:3	76.099998	25.000000
22-02-01	15:22:04	75.690002	28.000000
22-02-01	15:22:05	75.690002	28.000000
22-02-01	15:22:06	75.690002	28.000000
22-02-01	15:22:07	75.690002	28.000000
22-02-01	15:22:08	75.690002	28.000000
22-02-01	15:22:09	75.690002	28.000000
22-02-01	15:22:10	75.690002	28.000000
22-02-01	15:22:11	75.690002	28.000000
22-02-01	15:22:12	75.690002	28.000000
22-02-01	15:22:13	75.690002	28.000000
22-02-01	15:22:14	75.690002	28.000000
22-02-01	15:22:15	75.690002	28.000000
22-02-01	15:22:16	75.690002	28.000000
22-02-01	15:22:17	75.690002	28.000000
22-02-01	15:22:18	75.690002	28.000000
22-02-01	15:22:19	75.690002	28.000000
22-02-01	15:22:20	75.690002	28.000000
22-02-01	15:22:21	75.690002	28.000000
22-02-01	15:22:22	75.690002	28.000000
22-02-01	15:22:23	75.690002	28.000000
22-02-01	15:22:24	75.690002	28.000000
22-02-01	15:22:25	75.690002	28.000000
22-02-01	15:22:26	75.690002	28.000000
22-02-01	15:22:27	75.690002	28.000000
22-02-01	15:22:28	75.690002	28.000000
22-02-01	15:22:29	75.690002	28.000000
22-02-01	15:22:30	75.690002	28.000000
22-02-01	15:22:31	75.690002	28.000000
22-02-01	15:22:32	75.690002	28.000000
22-02-01	15:22:33	75.690002	28.000000
22-02-01	15:22:34	75.690002	28.000000
22-02-01	15:22:35	75.690002	28.000000
22-02-01	15:22:36	75.690002	28.000000
22-02-01	15:22:37	75.690002	28.000000
22-02-01	15:22:38	75.690002	28.000000
22-02-01	15:22:39	75.690002	28.000000
22-02-01	15:22:40	75.690002	28.000000
22-02-01	15:22:41	75.690002	28.000000
22-02-01	15:22:42	75.690002	28.000000
22-02-01	15:22:43	75.690002	28.000000
22-02-01	15:22:44	75.690002	28.000000
22-02-01	15:22:45	75.690002	28.000000
22-02-01	15:22:46	75.690002	28.000000
22-02-01	15:22:47	75.690002	28.000000
22-02-01	15:22:48	75.690002	28.000000
22-02-01	15:22:49	75.690002	28.000000
22-02-01	15:22:50	75.690002	28.000000
22-02-01	15:22:51	75.690002	28.000000
22-02-01	15:22:52	75.690002	28.000000
22-02-01	15:22:53	75.690002	28.000000
22-02-01	15:22:54	75.690002	28.000000
22-02-01	15:22:55	75.690002	28.000000
22-02-01	15:22:56	75.690002	28.000000
22-02-01	15:22:57	75.690002	28.000000
22-02-01	15:22:58	75.690002	28.000000
22-02-01	15:22:59	75.690002	28.000000
22-02-01	15:23:00	75.690002	28.000000
22-02-01	15:23:01	75.690002	28.000000
22-02-01	15:23:02	75.690002	28.000000
22-02-01	15:23:03	75.690002	28.000000
22-02-01	15:23:04	75.690002	28.000000
22-02-01	15:23:05	75.690002	28.000000
22-02-01	15:23:06	75.690002	28.000000
22-02-01	15:23:07	75.690002	28.000000
22-02-01	15:23:08	75.690002	28.000000
22-02-01	15:23:09	75.690002	28.000000
22-02-01	15:23:10	75.690002	28.000000
22-02-01	15:23:11	75.690002	28.000000
22-02-01	15:23:12	75.690002	28.000000
22-02-01	15:23:13	75.690002	28.000000
22-02-01	15:23:14	75.690002	28.000000
22-02-01	15:23:15	75.690002	28.000000
22-02-01	15:23:16	75.690002	28.000000
22-02-01	15:23:17	75.690002	28.000000
22-02-01	15:23:18	75.690002	28.000000
22-02-01	15:23:19	75.690002	28.000000
22-02-01	15:23:20	75.290001	15.000000
1:TX GET_WINDOW
Uplink: Give me packets or else!
pub asserted
Commencing Frame Construction 
pre-encrypt frame: 318000147697665206d65207061636b657473206f7220656c736521fe7331d4d56d46e3be855765
post-encrypt frame: f9dddac49e5fd653be3d4ccad9e468a4f97231a8c5e1ee41b65efd1b398e35fa7a2da29cf6cbe0e992b
f0f1f2f3f4f5f6f7f8f9fafbfcfdfeff
2:RX GET_WINDOW
foldernumfile = 0
